<?xml version="1.0" standalone="no"?>
<!DOCTYPE svg PUBLIC "-//W3C//DTD SVG 20010904//EN"
 "http://www.w3.org/TR/2001/REC-SVG-20010904/DTD/svg10.dtd">
<svg version="1.0" xmlns="http://www.w3.org/2000/svg"
 width="260.000000pt" height="260.000000pt" viewBox="0 0 260.000000 260.000000"
 preserveAspectRatio="xMidYMid meet">
<metadata>
Created by potrace 1.14, written by Peter Selinger 2001-2017
</metadata>
<g transform="translate(0.000000,260.000000) scale(0.100000,-0.100000)"
fill="#000000" stroke="none">
<path d="M344 2300 c3 -8 18 -58 35 -111 l31 -96 129 1 c78 1 133 5 142 12 8
6 29 19 47 28 17 9 32 21 32 26 0 5 -19 24 -42 43 -38 31 -56 37 -168 57 -69
12 -138 25 -154 27 -26 5 -28 4 -22 -18 5 -17 0 -14 -14 11 -12 19 -19 28 -16
20z m164 -113 c5 -25 -28 -34 -44 -12 -7 10 -11 22 -8 27 10 15 49 4 52 -15z"/>
<path d="M2215 2294 c-11 -3 -49 -13 -85 -23 -105 -29 -158 -41 -189 -41 -42
0 -74 -30 -76 -71 -1 -35 -20 -79 -39 -91 -15 -10 86 -9 149 2 28 4 51 7 53 5
2 -2 -6 -35 -18 -75 -32 -108 -60 -267 -60 -343 0 -66 1 -68 25 -64 13 1 27 6
31 10 15 15 45 6 53 -15 l8 -21 23 23 23 23 -6 -34 c-4 -19 -13 -101 -22 -184
-8 -82 -22 -199 -30 -260 -8 -60 -15 -114 -15 -120 -1 -31 -17 -34 -62 -11
-25 13 -56 33 -69 45 -22 21 -24 21 -27 4 -10 -57 -45 -180 -71 -248 -24 -61
-26 -74 -12 -61 22 20 41 21 41 1 0 -9 9 -25 19 -36 26 -28 31 -74 11 -107 -9
-15 -46 -56 -81 -91 l-64 -65 -6 115 -6 114 44 90 c80 167 121 386 143 765 10
183 24 282 59 414 12 44 21 84 21 89 0 6 -32 6 -82 1 -100 -10 -204 -7 -278 7
-76 15 -184 74 -241 131 -26 26 -52 48 -57 48 -5 0 -19 -12 -33 -26 -13 -14
-64 -51 -112 -81 -61 -39 -84 -59 -75 -64 7 -5 69 -9 138 -10 79 0 118 -4 105
-9 -11 -5 -61 -9 -112 -9 -100 -1 -154 -14 -135 -33 9 -9 6 -14 -11 -22 -34
-17 -32 -41 7 -83 l36 -38 26 30 c64 74 129 135 145 135 23 0 39 -29 39 -72 0
-19 7 -43 15 -54 8 -10 15 -29 15 -41 0 -28 20 -29 51 -3 22 19 22 20 4 18
-17 -3 -20 4 -23 40 -2 23 1 42 7 42 13 0 41 -40 41 -60 0 -14 94 -51 131 -50
9 0 21 -11 27 -25 8 -16 20 -25 35 -25 31 0 47 -18 47 -54 0 -28 -1 -28 -18
-13 -21 19 -49 21 -86 7 -38 -14 -32 -30 9 -23 21 3 41 1 50 -7 23 -20 18 -31
-11 -20 -14 6 -32 10 -40 10 -21 0 -17 -28 6 -35 11 -3 20 -15 20 -25 0 -11 9
-24 20 -30 10 -6 17 -16 14 -24 -3 -7 1 -16 9 -19 15 -6 23 -87 8 -87 -6 0
-15 -15 -22 -34 -7 -19 -20 -37 -30 -39 -16 -4 -49 -64 -49 -88 0 -31 95 11
104 45 9 34 7 46 -7 40 -10 -4 -12 3 -9 26 3 20 9 29 17 26 8 -3 24 5 38 17
13 12 36 32 50 44 15 13 27 29 27 37 0 15 59 70 67 62 8 -7 -63 -126 -75 -126
-4 0 -15 -7 -25 -14 -16 -12 -17 -17 -5 -37 7 -13 20 -29 28 -36 13 -11 12
-12 -7 -13 -13 0 -23 -6 -23 -14 0 -20 -27 -41 -32 -25 -2 7 -17 -14 -33 -45
-25 -49 -31 -55 -41 -42 -15 21 -143 20 -151 -1 -9 -24 -24 -13 -20 15 2 15
-2 43 -9 62 l-13 35 0 -30 c-1 -58 -14 -110 -34 -137 -11 -15 -24 -25 -29 -22
-4 3 -6 -16 -4 -42 6 -63 -38 -163 -83 -190 -17 -10 -32 -25 -33 -33 -2 -11
-12 -4 -32 22 -22 29 -26 41 -18 49 16 16 15 78 0 78 -7 0 -24 -12 -39 -26
-38 -36 -79 -26 -122 30 -18 23 -39 40 -47 38 -22 -4 -56 36 -68 79 -9 36 -9
37 17 35 42 -2 77 -31 85 -68 7 -33 60 -98 82 -98 6 0 23 9 38 21 22 17 26 28
26 69 0 62 12 94 55 142 37 40 45 61 20 52 -22 -9 -29 23 -11 51 9 13 16 31
16 40 0 29 -19 15 -39 -30 -19 -42 -44 -65 -58 -52 -3 3 4 25 16 49 19 41 20
95 0 82 -5 -3 -12 2 -15 10 -3 9 -13 16 -20 16 -8 0 -17 7 -21 16 -4 11 -8 12
-13 4 -12 -19 -31 -1 -26 23 3 13 1 11 -6 -5 -14 -32 -21 -34 -42 -13 -10 10
-17 12 -21 4 -4 -6 -19 -8 -34 -5 -22 5 -24 4 -10 -6 8 -7 19 -22 23 -33 7
-19 8 -19 17 -2 6 9 19 17 30 17 25 0 21 -16 -27 -112 -34 -68 -63 -94 -91
-84 -9 4 -22 1 -30 -5 -10 -9 -17 -9 -25 -1 -8 8 -17 5 -34 -13 -13 -14 -28
-25 -34 -25 -24 0 -6 45 60 150 16 25 33 65 39 90 10 46 38 103 84 177 14 23
36 62 48 87 13 29 27 45 34 42 14 -5 45 23 45 40 -1 16 -80 66 -95 60 -8 -3
-15 -15 -15 -28 0 -17 -3 -19 -12 -10 -20 20 -56 14 -74 -13 -9 -14 -20 -25
-25 -25 -5 0 -9 11 -9 25 0 31 -8 31 -55 -1 -31 -21 -36 -22 -31 -7 32 81 12
102 -69 71 l-57 -22 5 -55 c6 -63 44 -288 51 -299 2 -4 11 -61 20 -127 9 -66
23 -151 31 -190 41 -199 46 -237 34 -251 -18 -22 -25 -10 -38 68 -18 104 -28
123 -71 121 -19 -1 -47 -5 -63 -9 -20 -5 -27 -3 -27 8 0 8 -9 23 -20 33 -20
18 -20 17 -20 -11 0 -49 46 -270 77 -370 15 -50 15 -51 -11 -96 -42 -71 -37
-86 76 -250 l102 -148 57 0 c77 0 161 -20 166 -40 4 -13 271 -190 321 -213 12
-5 87 28 251 112 129 66 239 125 245 131 8 8 0 20 -32 47 l-43 35 65 59 c49
45 75 80 109 146 96 187 124 297 177 693 60 453 72 514 146 741 40 124 40 130
14 154 -20 18 -21 18 -35 -1 -9 -12 -6 8 10 54 l24 72 -32 -1 c-18 -1 -41 -3
-52 -5z m-37 -107 c4 -21 -25 -34 -40 -19 -8 8 -8 16 2 27 16 19 34 15 38 -8z
m-91 -303 c8 -20 -17 -36 -34 -22 -10 8 -10 14 -2 24 15 18 28 18 36 -2z
m-957 -408 c0 -2 -7 -20 -16 -41 -23 -57 -12 -79 14 -27 21 39 39 51 55 36 7
-7 -9 -42 -29 -62 -8 -7 -20 -22 -28 -34 -11 -16 -18 -18 -28 -10 -9 7 -20 7
-38 -3 -14 -8 -28 -14 -32 -15 -20 -1 38 121 70 148 15 11 32 16 32 8z m-430
-432 c0 -8 -7 -14 -15 -14 -15 0 -21 21 -9 33 10 9 24 -2 24 -19z m824 -22
c-4 -19 -14 -32 -28 -36 -46 -13 -49 -5 -11 34 21 22 40 38 42 36 2 -1 0 -17
-3 -34z m-341 -82 c4 -4 -29 -72 -75 -151 l-83 -144 -40 -3 c-66 -6 -345 9
-345 19 0 9 154 252 177 280 12 15 35 16 186 12 95 -3 176 -9 180 -13z m287
-21 c0 -11 11 -31 25 -45 20 -20 29 -23 44 -14 30 15 61 12 61 -6 0 -10 -6
-14 -15 -11 -8 4 -17 2 -20 -3 -8 -13 -52 -13 -77 1 -19 10 -57 81 -58 107 0
10 5 10 20 2 11 -6 20 -20 20 -31z m-216 -55 c21 -31 35 -59 31 -62 -3 -4 -54
-38 -113 -77 -88 -58 -108 -75 -110 -98 -3 -27 -22 -29 -22 -2 0 17 159 295
169 295 5 0 25 -25 45 -56z m431 -187 c14 -11 -5 -26 -132 -106 -81 -52 -153
-94 -159 -94 -13 0 -304 165 -304 173 0 3 64 46 143 97 l142 91 147 -75 c80
-41 153 -80 163 -86z m-996 108 c0 -5 -4 -3 -9 5 -5 8 -9 22 -9 30 0 16 17
-16 18 -35z m1231 14 c0 -22 -22 -25 -39 -6 -8 10 -8 16 0 24 16 16 39 5 39
-18z m-220 -338 l0 -180 -141 -96 c-78 -53 -147 -99 -155 -102 -12 -4 -14 17
-13 123 1 71 4 157 8 192 l6 63 140 89 c77 49 143 90 148 90 4 0 7 -81 7 -179z
m-661 133 c30 -50 30 -158 1 -176 -24 -16 -26 -37 -3 -53 21 -15 10 -50 -13
-41 -9 3 -55 6 -103 6 l-87 0 -85 122 c-46 67 -92 134 -102 150 l-19 28 195 0
195 0 21 -36z m201 -49 l142 -80 -5 -188 c-3 -104 -7 -191 -10 -194 -3 -2 -72
38 -154 91 l-149 95 3 98 c5 163 14 264 23 261 5 -2 73 -39 150 -83z"/>
<path d="M820 890 c-12 -7 -12 -13 -4 -27 14 -23 63 -28 89 -10 16 13 17 17 6
31 -15 18 -67 21 -91 6z"/>
<path d="M1035 886 c-30 -22 -12 -46 35 -46 47 0 65 24 35 46 -24 18 -46 18
-70 0z"/>
<path d="M743 763 c-19 -7 -16 -31 6 -43 27 -14 54 -13 76 4 16 12 17 16 6 30
-13 15 -61 20 -88 9z"/>
<path d="M934 745 c-15 -39 58 -62 91 -29 12 12 13 19 4 30 -16 19 -88 18 -95
-1z"/>
<path d="M1341 686 c-19 -23 3 -46 44 -46 64 0 67 46 4 56 -25 4 -39 1 -48
-10z"/>
<path d="M1610 551 c-15 -29 -12 -67 7 -86 16 -16 18 -16 36 6 27 34 11 98
-25 99 -4 0 -12 -9 -18 -19z"/>
<path d="M1470 285 c-13 -16 -16 -67 -5 -85 10 -16 42 -12 49 6 10 26 7 69 -6
82 -16 16 -23 15 -38 -3z"/>
<path d="M772 559 c-31 -12 -25 -41 10 -53 35 -12 88 18 67 39 -21 19 -51 25
-77 14z"/>
<path d="M1135 547 c-19 -30 -14 -74 11 -84 35 -13 55 52 26 87 l-19 24 -18
-27z"/>
<path d="M1270 461 c-20 -39 -9 -91 20 -91 30 0 43 73 18 98 -17 17 -26 15
-38 -7z"/>
<path d="M1132 348 c-32 -32 -1 -116 33 -88 26 22 14 100 -15 100 -3 0 -11 -5
-18 -12z"/>
<path d="M1256 264 c-11 -29 -6 -71 10 -85 14 -11 18 -10 30 6 26 35 12 95
-22 95 -6 0 -15 -7 -18 -16z"/>
<path d="M720 2236 c0 -2 24 -22 53 -45 65 -50 87 -53 87 -12 0 56 -7 61 -76
61 -35 0 -64 -2 -64 -4z"/>
<path d="M420 2061 c0 -5 11 -46 24 -92 34 -119 62 -264 95 -497 16 -112 32
-207 36 -210 4 -4 5 7 1 23 -5 27 -26 240 -26 273 0 6 7 12 15 12 8 0 15 5 15
10 0 16 50 11 57 -5 3 -9 -2 -24 -11 -34 -14 -16 -14 -22 -3 -57 11 -31 19
-39 38 -39 23 0 24 3 27 85 3 86 -9 197 -30 280 -14 54 -14 55 -30 43 -7 -6
-27 -15 -43 -20 -29 -10 -31 -9 -41 23 -14 44 6 66 35 40 16 -14 23 -15 41 -6
13 7 19 18 16 28 -2 9 -10 41 -16 70 -7 28 -16 52 -21 52 -5 0 -9 -5 -9 -12 0
-7 -7 -5 -17 5 -10 8 -45 20 -77 26 -72 13 -76 13 -76 2z"/>
<path d="M650 2005 c0 -28 13 -74 27 -94 1 -2 22 9 46 24 37 24 43 32 39 55
-3 24 -11 30 -47 39 -62 16 -65 15 -65 -24z"/>
<path d="M1298 1808 c-3 -7 5 -30 16 -51 19 -36 20 -41 5 -82 -14 -39 -14 -43
0 -37 14 5 14 3 2 -11 -17 -22 -31 -22 -31 0 0 13 -3 14 -12 5 -6 -6 -10 -13
-7 -15 2 -2 25 -18 51 -35 47 -32 78 -41 78 -22 0 6 -7 10 -15 10 -13 0 -15 7
-9 38 4 20 12 43 18 51 9 12 8 13 -6 8 -22 -8 -24 16 -5 53 12 22 11 27 -11
48 -42 40 -69 55 -74 40z"/>
<path d="M1117 1803 c-8 -13 70 -96 82 -88 8 5 9 11 2 19 -6 7 -8 15 -5 18 3
3 -6 18 -19 32 -24 25 -51 34 -60 19z"/>
<path d="M1510 1790 c0 -4 7 -13 15 -20 16 -13 50 -6 41 9 -7 11 -56 21 -56
11z"/>
<path d="M1233 1718 c-28 -16 -31 -23 -23 -39 13 -23 30 -25 30 -4 0 9 7 27
16 40 19 29 19 29 -23 3z"/>
<path d="M1035 1630 c-3 -5 -1 -10 4 -10 6 0 11 5 11 10 0 6 -2 10 -4 10 -3 0
-8 -4 -11 -10z"/>
<path d="M1238 1513 c7 -3 16 -2 19 1 4 3 -2 6 -13 5 -11 0 -14 -3 -6 -6z"/>
<path d="M1280 1480 c0 -5 5 -10 11 -10 5 0 7 5 4 10 -3 6 -8 10 -11 10 -2 0
-4 -4 -4 -10z"/>
<path d="M1340 1480 c0 -5 5 -10 11 -10 5 0 7 5 4 10 -3 6 -8 10 -11 10 -2 0
-4 -4 -4 -10z"/>
<path d="M946 1465 c-9 -26 -7 -32 5 -12 6 10 9 21 6 23 -2 3 -7 -2 -11 -11z"/>
<path d="M992 1425 c-17 -37 -14 -45 4 -12 9 16 14 31 11 33 -2 2 -9 -7 -15
-21z"/>
<path d="M925 1409 c-4 -6 -5 -12 -2 -15 2 -3 7 2 10 11 7 17 1 20 -8 4z"/>
<path d="M1356 1404 c-10 -25 1 -29 14 -5 6 12 7 21 1 21 -5 0 -12 -7 -15 -16z"/>
<path d="M1290 1394 c0 -8 5 -12 10 -9 6 3 10 10 10 16 0 5 -4 9 -10 9 -5 0
-10 -7 -10 -16z"/>
<path d="M1331 1361 c-7 -5 -11 -15 -9 -22 3 -10 8 -7 17 9 13 24 12 26 -8 13z"/>
</g>
</svg>
